^P:\PROJECTS\DEVELOPMENT--P L U G I N S\CSM-SERIALIZER\CSM SERIALIZER\CSMCORE\RELEASE\FILEUTILITY.OBJ
P:\PROJECTS\DEVELOPMENT--P L U G I N S\CSM-SERIALIZER\CSM SERIALIZER\CSMCORE\RELEASE\FILEUTILITY.OBJ
C:\WINDOWS\SYSTEM32\TZRES.DLL
