^P:\PROJECTS\DEVELOPMENT--P L U G I N S\CSM-SERIALIZER\CSM SERIALIZER\CSMCORE\DEBUG\CSMDESERIALIZERCORE.SBR|P:\PROJECTS\DEVELOPMENT--P L U G I N S\CSM-SERIALIZER\CSM SERIALIZER\CSMCORE\DEBUG\CSMFILECORE.SBR|P:\PROJECTS\DEVELOPMENT--P L U G I N S\CSM-SERIALIZER\CSM SERIALIZER\CSMCORE\DEBUG\CSMFILEPROTOTYPE.SBR|P:\PROJECTS\DEVELOPMENT--P L U G I N S\CSM-SERIALIZER\CSM SERIALIZER\CSMCORE\DEBUG\CSMPROTOTYPEINFO.SBR|P:\PROJECTS\DEVELOPMENT--P L U G I N S\CSM-SERIALIZER\CSM SERIALIZER\CSMCORE\DEBUG\CSMSERIALIZEDBLOCK.SBR|P:\PROJECTS\DEVELOPMENT--P L U G I N S\CSM-SERIALIZER\CSM SERIALIZER\CSMCORE\DEBUG\FILEUTILITY.SBR|P:\PROJECTS\DEVELOPMENT--P L U G I N S\CSM-SERIALIZER\CSM SERIALIZER\CSMCORE\DEBUG\SERIALIZEDRESULT.SBR|P:\PROJECTS\DEVELOPMENT--P L U G I N S\CSM-SERIALIZER\CSM SERIALIZER\CSMCORE\DEBUG\SERIALIZEOBJ.SBR
C:\WINDOWS\SYSTEM32\TZRES.DLL
P:\PROJECTS\DEVELOPMENT--P L U G I N S\CSM-SERIALIZER\CSM SERIALIZER\CSMCORE\DEBUG\SERIALIZEDRESULT.SBR
P:\PROJECTS\DEVELOPMENT--P L U G I N S\CSM-SERIALIZER\CSM SERIALIZER\CSMCORE\DEBUG\SERIALIZEOBJ.SBR
P:\PROJECTS\DEVELOPMENT--P L U G I N S\CSM-SERIALIZER\CSM SERIALIZER\CSMCORE\DEBUG\CSMFILEPROTOTYPE.SBR
P:\PROJECTS\DEVELOPMENT--P L U G I N S\CSM-SERIALIZER\CSM SERIALIZER\CSMCORE\DEBUG\CSMDESERIALIZERCORE.SBR
P:\PROJECTS\DEVELOPMENT--P L U G I N S\CSM-SERIALIZER\CSM SERIALIZER\CSMCORE\DEBUG\CSMFILECORE.SBR
P:\PROJECTS\DEVELOPMENT--P L U G I N S\CSM-SERIALIZER\CSM SERIALIZER\CSMCORE\DEBUG\CSMPROTOTYPEINFO.SBR
P:\PROJECTS\DEVELOPMENT--P L U G I N S\CSM-SERIALIZER\CSM SERIALIZER\CSMCORE\DEBUG\CSMSERIALIZEDBLOCK.SBR
P:\PROJECTS\DEVELOPMENT--P L U G I N S\CSM-SERIALIZER\CSM SERIALIZER\CSMCORE\DEBUG\FILEUTILITY.SBR
