^P:\PROJECTS\DEVELOPMENT--P L U G I N S\CSM-SERIALIZER\CSM SERIALIZER\CSMCORE\SOURCE FILES\CSMDESERIALIZERCORE.CPP|P:\PROJECTS\DEVELOPMENT--P L U G I N S\CSM-SERIALIZER\CSM SERIALIZER\CSMCORE\SOURCE FILES\CSMFILECORE.CPP|P:\PROJECTS\DEVELOPMENT--P L U G I N S\CSM-SERIALIZER\CSM SERIALIZER\CSMCORE\SOURCE FILES\CSMFILEPROTOTYPE.CPP|P:\PROJECTS\DEVELOPMENT--P L U G I N S\CSM-SERIALIZER\CSM SERIALIZER\CSMCORE\SOURCE FILES\CSMPROTOTYPEINFO.CPP|P:\PROJECTS\DEVELOPMENT--P L U G I N S\CSM-SERIALIZER\CSM SERIALIZER\CSMCORE\SOURCE FILES\CSMSERIALIZEDBLOCK.CPP|P:\PROJECTS\DEVELOPMENT--P L U G I N S\CSM-SERIALIZER\CSM SERIALIZER\CSMCORE\SOURCE FILES\FILEUTILITY.CPP|P:\PROJECTS\DEVELOPMENT--P L U G I N S\CSM-SERIALIZER\CSM SERIALIZER\CSMCORE\SOURCE FILES\SERIALIZEDRESULT.CPP|P:\PROJECTS\DEVELOPMENT--P L U G I N S\CSM-SERIALIZER\CSM SERIALIZER\CSMCORE\SOURCE FILES\SERIALIZEOBJ.CPP
P:\PROJECTS\DEVELOPMENT--P L U G I N S\CSM-SERIALIZER\CSM SERIALIZER\CSMCORE\DEBUG\CSMCORE.PDB
P:\PROJECTS\DEVELOPMENT--P L U G I N S\CSM-SERIALIZER\CSM SERIALIZER\CSMCORE\DEBUG\CSMCORE.IDB
P:\PROJECTS\DEVELOPMENT--P L U G I N S\CSM-SERIALIZER\CSM SERIALIZER\CSMCORE\DEBUG\SERIALIZEDRESULT.SBR
P:\PROJECTS\DEVELOPMENT--P L U G I N S\CSM-SERIALIZER\CSM SERIALIZER\CSMCORE\DEBUG\SERIALIZEOBJ.SBR
P:\PROJECTS\DEVELOPMENT--P L U G I N S\CSM-SERIALIZER\CSM SERIALIZER\CSMCORE\DEBUG\CSMFILEPROTOTYPE.SBR
P:\PROJECTS\DEVELOPMENT--P L U G I N S\CSM-SERIALIZER\CSM SERIALIZER\CSMCORE\DEBUG\CSMDESERIALIZERCORE.SBR
P:\PROJECTS\DEVELOPMENT--P L U G I N S\CSM-SERIALIZER\CSM SERIALIZER\CSMCORE\DEBUG\CSMFILECORE.SBR
P:\PROJECTS\DEVELOPMENT--P L U G I N S\CSM-SERIALIZER\CSM SERIALIZER\CSMCORE\DEBUG\CSMPROTOTYPEINFO.SBR
P:\PROJECTS\DEVELOPMENT--P L U G I N S\CSM-SERIALIZER\CSM SERIALIZER\CSMCORE\DEBUG\CSMSERIALIZEDBLOCK.SBR
P:\PROJECTS\DEVELOPMENT--P L U G I N S\CSM-SERIALIZER\CSM SERIALIZER\CSMCORE\DEBUG\FILEUTILITY.SBR
P:\PROJECTS\DEVELOPMENT--P L U G I N S\CSM-SERIALIZER\CSM SERIALIZER\CSMCORE\DEBUG\FILEUTILITY.OBJ
P:\PROJECTS\DEVELOPMENT--P L U G I N S\CSM-SERIALIZER\CSM SERIALIZER\CSMCORE\DEBUG\CSMSERIALIZEDBLOCK.OBJ
P:\PROJECTS\DEVELOPMENT--P L U G I N S\CSM-SERIALIZER\CSM SERIALIZER\CSMCORE\DEBUG\CSMPROTOTYPEINFO.OBJ
P:\PROJECTS\DEVELOPMENT--P L U G I N S\CSM-SERIALIZER\CSM SERIALIZER\CSMCORE\DEBUG\CSMFILECORE.OBJ
P:\PROJECTS\DEVELOPMENT--P L U G I N S\CSM-SERIALIZER\CSM SERIALIZER\CSMCORE\DEBUG\CSMDESERIALIZERCORE.OBJ
P:\PROJECTS\DEVELOPMENT--P L U G I N S\CSM-SERIALIZER\CSM SERIALIZER\CSMCORE\DEBUG\CSMFILEPROTOTYPE.OBJ
P:\PROJECTS\DEVELOPMENT--P L U G I N S\CSM-SERIALIZER\CSM SERIALIZER\CSMCORE\DEBUG\SERIALIZEOBJ.OBJ
P:\PROJECTS\DEVELOPMENT--P L U G I N S\CSM-SERIALIZER\CSM SERIALIZER\CSMCORE\DEBUG\SERIALIZEDRESULT.OBJ
^P:\PROJECTS\DEVELOPMENT--P L U G I N S\CSM-SERIALIZER\CSM SERIALIZER\CSMCORE\SOURCE FILES\SERIALIZEDRESULT.CPP
P:\PROJECTS\DEVELOPMENT--P L U G I N S\CSM-SERIALIZER\CSM SERIALIZER\CSMCORE\DEBUG\CSMCORE.PDB
^P:\PROJECTS\DEVELOPMENT--P L U G I N S\CSM-SERIALIZER\CSM SERIALIZER\CSMCORE\SOURCE FILES\SERIALIZEOBJ.CPP
P:\PROJECTS\DEVELOPMENT--P L U G I N S\CSM-SERIALIZER\CSM SERIALIZER\CSMCORE\DEBUG\CSMCORE.PDB
^P:\PROJECTS\DEVELOPMENT--P L U G I N S\CSM-SERIALIZER\CSM SERIALIZER\CSMCORE\SOURCE FILES\CSMFILEPROTOTYPE.CPP
P:\PROJECTS\DEVELOPMENT--P L U G I N S\CSM-SERIALIZER\CSM SERIALIZER\CSMCORE\DEBUG\CSMCORE.PDB
^P:\PROJECTS\DEVELOPMENT--P L U G I N S\CSM-SERIALIZER\CSM SERIALIZER\CSMCORE\SOURCE FILES\CSMDESERIALIZERCORE.CPP
P:\PROJECTS\DEVELOPMENT--P L U G I N S\CSM-SERIALIZER\CSM SERIALIZER\CSMCORE\DEBUG\CSMCORE.PDB
^P:\PROJECTS\DEVELOPMENT--P L U G I N S\CSM-SERIALIZER\CSM SERIALIZER\CSMCORE\SOURCE FILES\CSMFILECORE.CPP
P:\PROJECTS\DEVELOPMENT--P L U G I N S\CSM-SERIALIZER\CSM SERIALIZER\CSMCORE\DEBUG\CSMCORE.PDB
^P:\PROJECTS\DEVELOPMENT--P L U G I N S\CSM-SERIALIZER\CSM SERIALIZER\CSMCORE\SOURCE FILES\CSMPROTOTYPEINFO.CPP
P:\PROJECTS\DEVELOPMENT--P L U G I N S\CSM-SERIALIZER\CSM SERIALIZER\CSMCORE\DEBUG\CSMCORE.PDB
^P:\PROJECTS\DEVELOPMENT--P L U G I N S\CSM-SERIALIZER\CSM SERIALIZER\CSMCORE\SOURCE FILES\CSMSERIALIZEDBLOCK.CPP
P:\PROJECTS\DEVELOPMENT--P L U G I N S\CSM-SERIALIZER\CSM SERIALIZER\CSMCORE\DEBUG\CSMCORE.PDB
^P:\PROJECTS\DEVELOPMENT--P L U G I N S\CSM-SERIALIZER\CSM SERIALIZER\CSMCORE\SOURCE FILES\FILEUTILITY.CPP
P:\PROJECTS\DEVELOPMENT--P L U G I N S\CSM-SERIALIZER\CSM SERIALIZER\CSMCORE\DEBUG\CSMCORE.PDB
