^P:\PROJECTS\DEVELOPMENT--P L U G I N S\CSM-SERIALIZER\CSM SERIALIZER\CSMCORE\X64\DEBUG\CSMDESERIALIZERCORE.OBJ|P:\PROJECTS\DEVELOPMENT--P L U G I N S\CSM-SERIALIZER\CSM SERIALIZER\CSMCORE\X64\DEBUG\CSMFILECORE.OBJ|P:\PROJECTS\DEVELOPMENT--P L U G I N S\CSM-SERIALIZER\CSM SERIALIZER\CSMCORE\X64\DEBUG\CSMFILEPROTOTYPE.OBJ|P:\PROJECTS\DEVELOPMENT--P L U G I N S\CSM-SERIALIZER\CSM SERIALIZER\CSMCORE\X64\DEBUG\CSMPROTOTYPEINFO.OBJ|P:\PROJECTS\DEVELOPMENT--P L U G I N S\CSM-SERIALIZER\CSM SERIALIZER\CSMCORE\X64\DEBUG\CSMSERIALIZEDBLOCK.OBJ|P:\PROJECTS\DEVELOPMENT--P L U G I N S\CSM-SERIALIZER\CSM SERIALIZER\CSMCORE\X64\DEBUG\FILEUTILITY.OBJ|P:\PROJECTS\DEVELOPMENT--P L U G I N S\CSM-SERIALIZER\CSM SERIALIZER\CSMCORE\X64\DEBUG\SERIALIZEDRESULT.OBJ|P:\PROJECTS\DEVELOPMENT--P L U G I N S\CSM-SERIALIZER\CSM SERIALIZER\CSMCORE\X64\DEBUG\SERIALIZEOBJ.OBJ
P:\PROJECTS\DEVELOPMENT--P L U G I N S\CSM-SERIALIZER\CSM SERIALIZER\CSMCORE\X64\DEBUG\SERIALIZEDRESULT.OBJ
C:\WINDOWS\SYSTEM32\TZRES.DLL
P:\PROJECTS\DEVELOPMENT--P L U G I N S\CSM-SERIALIZER\CSM SERIALIZER\CSMCORE\X64\DEBUG\SERIALIZEOBJ.OBJ
P:\PROJECTS\DEVELOPMENT--P L U G I N S\CSM-SERIALIZER\CSM SERIALIZER\CSMCORE\X64\DEBUG\CSMFILEPROTOTYPE.OBJ
P:\PROJECTS\DEVELOPMENT--P L U G I N S\CSM-SERIALIZER\CSM SERIALIZER\CSMCORE\X64\DEBUG\CSMDESERIALIZERCORE.OBJ
P:\PROJECTS\DEVELOPMENT--P L U G I N S\CSM-SERIALIZER\CSM SERIALIZER\CSMCORE\X64\DEBUG\CSMFILECORE.OBJ
P:\PROJECTS\DEVELOPMENT--P L U G I N S\CSM-SERIALIZER\CSM SERIALIZER\CSMCORE\X64\DEBUG\CSMPROTOTYPEINFO.OBJ
P:\PROJECTS\DEVELOPMENT--P L U G I N S\CSM-SERIALIZER\CSM SERIALIZER\CSMCORE\X64\DEBUG\CSMSERIALIZEDBLOCK.OBJ
P:\PROJECTS\DEVELOPMENT--P L U G I N S\CSM-SERIALIZER\CSM SERIALIZER\CSMCORE\X64\DEBUG\FILEUTILITY.OBJ
C:\WINDOWS\GLOBALIZATION\SORTING\SORTDEFAULT.NLS
