^P:\PROJECTS\DEVELOPMENT--P L U G I N S\CSM-SERIALIZER\CSM SERIALIZER\CSMWRAPPER\ASSEMBLYINFO.CPP
/c /AI"C:\PROGRAM FILES (X86)\REFERENCE ASSEMBLIES\MICROSOFT\FRAMEWORK\.NETFRAMEWORK\V4.6\\" /AI"C:\PROGRAM FILES (X86)\WINDOWS KITS\10\REFERENCES" /AI"C:\PROGRAM FILES (X86)\REFERENCE ASSEMBLIES\MICROSOFT\FRAMEWORK\.NETFRAMEWORK\V4.6\FACADES\\" /Zi /clr /nologo /W3 /WX- /diagnostics:classic /Oi /Ot /Oy- /D _DEBUG /D _WINDLL /D _UNICODE /D UNICODE /EHa /MDd /GS /fp:precise /Zc:wchar_t /Zc:forScope /Zc:inline /Fo"X64\DEBUG\\" /Fd"X64\DEBUG\VC141.PDB" /TP /FU"P:\PROJECTS\DEVELOPMENT--P L U G I N S\CSM-SERIALIZER\CSM SERIALIZER\CSHARPWRAPPER\BIN\DEBUG\CSHARPWRAPPER.DLL" /FU"C:\PROGRAM FILES (X86)\REFERENCE ASSEMBLIES\MICROSOFT\FRAMEWORK\.NETFRAMEWORK\V4.6\MSCORLIB.DLL" /FU"C:\PROGRAM FILES (X86)\REFERENCE ASSEMBLIES\MICROSOFT\FRAMEWORK\.NETFRAMEWORK\V4.6\SYSTEM.DATA.DLL" /FU"C:\PROGRAM FILES (X86)\REFERENCE ASSEMBLIES\MICROSOFT\FRAMEWORK\.NETFRAMEWORK\V4.6\SYSTEM.DLL" /FU"C:\PROGRAM FILES (X86)\REFERENCE ASSEMBLIES\MICROSOFT\FRAMEWORK\.NETFRAMEWORK\V4.6\SYSTEM.XML.DLL" /FC /clr:nostdlib  P:\PROJECTS\DEVELOPMENT--P L U G I N S\CSM-SERIALIZER\CSM SERIALIZER\CSMWRAPPER\ASSEMBLYINFO.CPP
^P:\PROJECTS\DEVELOPMENT--P L U G I N S\CSM-SERIALIZER\CSM SERIALIZER\CSMWRAPPER\CSHARPMANAGER.CPP
/c /AI"C:\PROGRAM FILES (X86)\REFERENCE ASSEMBLIES\MICROSOFT\FRAMEWORK\.NETFRAMEWORK\V4.6\\" /AI"C:\PROGRAM FILES (X86)\WINDOWS KITS\10\REFERENCES" /AI"C:\PROGRAM FILES (X86)\REFERENCE ASSEMBLIES\MICROSOFT\FRAMEWORK\.NETFRAMEWORK\V4.6\FACADES\\" /Zi /clr /nologo /W3 /WX- /diagnostics:classic /Oi /Ot /Oy- /D _DEBUG /D _WINDLL /D _UNICODE /D UNICODE /EHa /MDd /GS /fp:precise /Zc:wchar_t /Zc:forScope /Zc:inline /Fo"X64\DEBUG\\" /Fd"X64\DEBUG\VC141.PDB" /TP /FU"P:\PROJECTS\DEVELOPMENT--P L U G I N S\CSM-SERIALIZER\CSM SERIALIZER\CSHARPWRAPPER\BIN\DEBUG\CSHARPWRAPPER.DLL" /FU"C:\PROGRAM FILES (X86)\REFERENCE ASSEMBLIES\MICROSOFT\FRAMEWORK\.NETFRAMEWORK\V4.6\MSCORLIB.DLL" /FU"C:\PROGRAM FILES (X86)\REFERENCE ASSEMBLIES\MICROSOFT\FRAMEWORK\.NETFRAMEWORK\V4.6\SYSTEM.DATA.DLL" /FU"C:\PROGRAM FILES (X86)\REFERENCE ASSEMBLIES\MICROSOFT\FRAMEWORK\.NETFRAMEWORK\V4.6\SYSTEM.DLL" /FU"C:\PROGRAM FILES (X86)\REFERENCE ASSEMBLIES\MICROSOFT\FRAMEWORK\.NETFRAMEWORK\V4.6\SYSTEM.XML.DLL" /FC /clr:nostdlib  P:\PROJECTS\DEVELOPMENT--P L U G I N S\CSM-SERIALIZER\CSM SERIALIZER\CSMWRAPPER\CSHARPMANAGER.CPP
^P:\PROJECTS\DEVELOPMENT--P L U G I N S\CSM-SERIALIZER\CSM SERIALIZER\CSMWRAPPER\CSMDESERIALIZER.CPP
/c /AI"C:\PROGRAM FILES (X86)\REFERENCE ASSEMBLIES\MICROSOFT\FRAMEWORK\.NETFRAMEWORK\V4.6\\" /AI"C:\PROGRAM FILES (X86)\WINDOWS KITS\10\REFERENCES" /AI"C:\PROGRAM FILES (X86)\REFERENCE ASSEMBLIES\MICROSOFT\FRAMEWORK\.NETFRAMEWORK\V4.6\FACADES\\" /Zi /clr /nologo /W3 /WX- /diagnostics:classic /Oi /Ot /Oy- /D _DEBUG /D _WINDLL /D _UNICODE /D UNICODE /EHa /MDd /GS /fp:precise /Zc:wchar_t /Zc:forScope /Zc:inline /Fo"X64\DEBUG\\" /Fd"X64\DEBUG\VC141.PDB" /TP /FU"P:\PROJECTS\DEVELOPMENT--P L U G I N S\CSM-SERIALIZER\CSM SERIALIZER\CSHARPWRAPPER\BIN\DEBUG\CSHARPWRAPPER.DLL" /FU"C:\PROGRAM FILES (X86)\REFERENCE ASSEMBLIES\MICROSOFT\FRAMEWORK\.NETFRAMEWORK\V4.6\MSCORLIB.DLL" /FU"C:\PROGRAM FILES (X86)\REFERENCE ASSEMBLIES\MICROSOFT\FRAMEWORK\.NETFRAMEWORK\V4.6\SYSTEM.DATA.DLL" /FU"C:\PROGRAM FILES (X86)\REFERENCE ASSEMBLIES\MICROSOFT\FRAMEWORK\.NETFRAMEWORK\V4.6\SYSTEM.DLL" /FU"C:\PROGRAM FILES (X86)\REFERENCE ASSEMBLIES\MICROSOFT\FRAMEWORK\.NETFRAMEWORK\V4.6\SYSTEM.XML.DLL" /FC /clr:nostdlib  P:\PROJECTS\DEVELOPMENT--P L U G I N S\CSM-SERIALIZER\CSM SERIALIZER\CSMWRAPPER\CSMDESERIALIZER.CPP
^P:\PROJECTS\DEVELOPMENT--P L U G I N S\CSM-SERIALIZER\CSM SERIALIZER\CSMWRAPPER\CSMMANAGER.CPP
/c /AI"C:\PROGRAM FILES (X86)\REFERENCE ASSEMBLIES\MICROSOFT\FRAMEWORK\.NETFRAMEWORK\V4.6\\" /AI"C:\PROGRAM FILES (X86)\WINDOWS KITS\10\REFERENCES" /AI"C:\PROGRAM FILES (X86)\REFERENCE ASSEMBLIES\MICROSOFT\FRAMEWORK\.NETFRAMEWORK\V4.6\FACADES\\" /Zi /clr /nologo /W3 /WX- /diagnostics:classic /Oi /Ot /Oy- /D _DEBUG /D _WINDLL /D _UNICODE /D UNICODE /EHa /MDd /GS /fp:precise /Zc:wchar_t /Zc:forScope /Zc:inline /Fo"X64\DEBUG\\" /Fd"X64\DEBUG\VC141.PDB" /TP /FU"P:\PROJECTS\DEVELOPMENT--P L U G I N S\CSM-SERIALIZER\CSM SERIALIZER\CSHARPWRAPPER\BIN\DEBUG\CSHARPWRAPPER.DLL" /FU"C:\PROGRAM FILES (X86)\REFERENCE ASSEMBLIES\MICROSOFT\FRAMEWORK\.NETFRAMEWORK\V4.6\MSCORLIB.DLL" /FU"C:\PROGRAM FILES (X86)\REFERENCE ASSEMBLIES\MICROSOFT\FRAMEWORK\.NETFRAMEWORK\V4.6\SYSTEM.DATA.DLL" /FU"C:\PROGRAM FILES (X86)\REFERENCE ASSEMBLIES\MICROSOFT\FRAMEWORK\.NETFRAMEWORK\V4.6\SYSTEM.DLL" /FU"C:\PROGRAM FILES (X86)\REFERENCE ASSEMBLIES\MICROSOFT\FRAMEWORK\.NETFRAMEWORK\V4.6\SYSTEM.XML.DLL" /FC /clr:nostdlib  P:\PROJECTS\DEVELOPMENT--P L U G I N S\CSM-SERIALIZER\CSM SERIALIZER\CSMWRAPPER\CSMMANAGER.CPP
^P:\PROJECTS\DEVELOPMENT--P L U G I N S\CSM-SERIALIZER\CSM SERIALIZER\CSMWRAPPER\FILECSM.CPP
/c /AI"C:\PROGRAM FILES (X86)\REFERENCE ASSEMBLIES\MICROSOFT\FRAMEWORK\.NETFRAMEWORK\V4.6\\" /AI"C:\PROGRAM FILES (X86)\WINDOWS KITS\10\REFERENCES" /AI"C:\PROGRAM FILES (X86)\REFERENCE ASSEMBLIES\MICROSOFT\FRAMEWORK\.NETFRAMEWORK\V4.6\FACADES\\" /Zi /clr /nologo /W3 /WX- /diagnostics:classic /Oi /Ot /Oy- /D _DEBUG /D _WINDLL /D _UNICODE /D UNICODE /EHa /MDd /GS /fp:precise /Zc:wchar_t /Zc:forScope /Zc:inline /Fo"X64\DEBUG\\" /Fd"X64\DEBUG\VC141.PDB" /TP /FU"P:\PROJECTS\DEVELOPMENT--P L U G I N S\CSM-SERIALIZER\CSM SERIALIZER\CSHARPWRAPPER\BIN\DEBUG\CSHARPWRAPPER.DLL" /FU"C:\PROGRAM FILES (X86)\REFERENCE ASSEMBLIES\MICROSOFT\FRAMEWORK\.NETFRAMEWORK\V4.6\MSCORLIB.DLL" /FU"C:\PROGRAM FILES (X86)\REFERENCE ASSEMBLIES\MICROSOFT\FRAMEWORK\.NETFRAMEWORK\V4.6\SYSTEM.DATA.DLL" /FU"C:\PROGRAM FILES (X86)\REFERENCE ASSEMBLIES\MICROSOFT\FRAMEWORK\.NETFRAMEWORK\V4.6\SYSTEM.DLL" /FU"C:\PROGRAM FILES (X86)\REFERENCE ASSEMBLIES\MICROSOFT\FRAMEWORK\.NETFRAMEWORK\V4.6\SYSTEM.XML.DLL" /FC /clr:nostdlib  P:\PROJECTS\DEVELOPMENT--P L U G I N S\CSM-SERIALIZER\CSM SERIALIZER\CSMWRAPPER\FILECSM.CPP
^P:\PROJECTS\DEVELOPMENT--P L U G I N S\CSM-SERIALIZER\CSM SERIALIZER\CSMWRAPPER\FILEPROTOTYPE.CPP
/c /AI"C:\PROGRAM FILES (X86)\REFERENCE ASSEMBLIES\MICROSOFT\FRAMEWORK\.NETFRAMEWORK\V4.6\\" /AI"C:\PROGRAM FILES (X86)\WINDOWS KITS\10\REFERENCES" /AI"C:\PROGRAM FILES (X86)\REFERENCE ASSEMBLIES\MICROSOFT\FRAMEWORK\.NETFRAMEWORK\V4.6\FACADES\\" /Zi /clr /nologo /W3 /WX- /diagnostics:classic /Oi /Ot /Oy- /D _DEBUG /D _WINDLL /D _UNICODE /D UNICODE /EHa /MDd /GS /fp:precise /Zc:wchar_t /Zc:forScope /Zc:inline /Fo"X64\DEBUG\\" /Fd"X64\DEBUG\VC141.PDB" /TP /FU"P:\PROJECTS\DEVELOPMENT--P L U G I N S\CSM-SERIALIZER\CSM SERIALIZER\CSHARPWRAPPER\BIN\DEBUG\CSHARPWRAPPER.DLL" /FU"C:\PROGRAM FILES (X86)\REFERENCE ASSEMBLIES\MICROSOFT\FRAMEWORK\.NETFRAMEWORK\V4.6\MSCORLIB.DLL" /FU"C:\PROGRAM FILES (X86)\REFERENCE ASSEMBLIES\MICROSOFT\FRAMEWORK\.NETFRAMEWORK\V4.6\SYSTEM.DATA.DLL" /FU"C:\PROGRAM FILES (X86)\REFERENCE ASSEMBLIES\MICROSOFT\FRAMEWORK\.NETFRAMEWORK\V4.6\SYSTEM.DLL" /FU"C:\PROGRAM FILES (X86)\REFERENCE ASSEMBLIES\MICROSOFT\FRAMEWORK\.NETFRAMEWORK\V4.6\SYSTEM.XML.DLL" /FC /clr:nostdlib  P:\PROJECTS\DEVELOPMENT--P L U G I N S\CSM-SERIALIZER\CSM SERIALIZER\CSMWRAPPER\FILEPROTOTYPE.CPP
^P:\PROJECTS\DEVELOPMENT--P L U G I N S\CSM-SERIALIZER\CSM SERIALIZER\CSMWRAPPER\MARSHALING.CPP
/c /AI"C:\PROGRAM FILES (X86)\REFERENCE ASSEMBLIES\MICROSOFT\FRAMEWORK\.NETFRAMEWORK\V4.6\\" /AI"C:\PROGRAM FILES (X86)\WINDOWS KITS\10\REFERENCES" /AI"C:\PROGRAM FILES (X86)\REFERENCE ASSEMBLIES\MICROSOFT\FRAMEWORK\.NETFRAMEWORK\V4.6\FACADES\\" /Zi /clr /nologo /W3 /WX- /diagnostics:classic /Oi /Ot /Oy- /D _DEBUG /D _WINDLL /D _UNICODE /D UNICODE /EHa /MDd /GS /fp:precise /Zc:wchar_t /Zc:forScope /Zc:inline /Fo"X64\DEBUG\\" /Fd"X64\DEBUG\VC141.PDB" /TP /FU"P:\PROJECTS\DEVELOPMENT--P L U G I N S\CSM-SERIALIZER\CSM SERIALIZER\CSHARPWRAPPER\BIN\DEBUG\CSHARPWRAPPER.DLL" /FU"C:\PROGRAM FILES (X86)\REFERENCE ASSEMBLIES\MICROSOFT\FRAMEWORK\.NETFRAMEWORK\V4.6\MSCORLIB.DLL" /FU"C:\PROGRAM FILES (X86)\REFERENCE ASSEMBLIES\MICROSOFT\FRAMEWORK\.NETFRAMEWORK\V4.6\SYSTEM.DATA.DLL" /FU"C:\PROGRAM FILES (X86)\REFERENCE ASSEMBLIES\MICROSOFT\FRAMEWORK\.NETFRAMEWORK\V4.6\SYSTEM.DLL" /FU"C:\PROGRAM FILES (X86)\REFERENCE ASSEMBLIES\MICROSOFT\FRAMEWORK\.NETFRAMEWORK\V4.6\SYSTEM.XML.DLL" /FC /clr:nostdlib  P:\PROJECTS\DEVELOPMENT--P L U G I N S\CSM-SERIALIZER\CSM SERIALIZER\CSMWRAPPER\MARSHALING.CPP
^C:\USERS\MARKO\APPDATA\LOCAL\TEMP\.NETFRAMEWORK,VERSION=V4.6.ASSEMBLYATTRIBUTES.CPP
/c /Zi /clr /nologo /W3 /WX- /diagnostics:classic /Oi /Ot /Oy- /D _DEBUG /D _WINDLL /D _UNICODE /D UNICODE /EHa /MDd /GS /fp:precise /Zc:wchar_t /Zc:forScope /Zc:inline /Fp"X64\DEBUG\CSM CSHARP.PCH" /Fa"X64\DEBUG\\" /Fo"X64\DEBUG\\" /Fd"X64\DEBUG\VC141.PDB" /FC C:\USERS\MARKO\APPDATA\LOCAL\TEMP\.NETFRAMEWORK,VERSION=V4.6.ASSEMBLYATTRIBUTES.CPP
