^P:\Projects\Development--P L U G I N S\CSM-Serializer\CSM Serializer\CSMWrapper\CSMWrapper.vcxproj
P:\Projects\Development--P L U G I N S\TimeRewizer\TimeRewizer\x64\Debug\CSharpWrapper.dll
P:\Projects\Development--P L U G I N S\TimeRewizer\TimeRewizer\x64\Debug\CSharpWrapper.pdb
