^P:\PROJECTS\DEVELOPMENT--P L U G I N S\CSM-SERIALIZER\CSM SERIALIZER\CSMCORE\X64\DEBUG\CSMDESERIALIZERCORE.OBJ|P:\PROJECTS\DEVELOPMENT--P L U G I N S\CSM-SERIALIZER\CSM SERIALIZER\CSMCORE\X64\DEBUG\CSMFILECORE.OBJ|P:\PROJECTS\DEVELOPMENT--P L U G I N S\CSM-SERIALIZER\CSM SERIALIZER\CSMCORE\X64\DEBUG\CSMFILEPROTOTYPE.OBJ|P:\PROJECTS\DEVELOPMENT--P L U G I N S\CSM-SERIALIZER\CSM SERIALIZER\CSMCORE\X64\DEBUG\CSMPROTOTYPEINFO.OBJ|P:\PROJECTS\DEVELOPMENT--P L U G I N S\CSM-SERIALIZER\CSM SERIALIZER\CSMCORE\X64\DEBUG\CSMSERIALIZEDBLOCK.OBJ|P:\PROJECTS\DEVELOPMENT--P L U G I N S\CSM-SERIALIZER\CSM SERIALIZER\CSMCORE\X64\DEBUG\FILEUTILITY.OBJ|P:\PROJECTS\DEVELOPMENT--P L U G I N S\CSM-SERIALIZER\CSM SERIALIZER\CSMCORE\X64\DEBUG\SERIALIZEDRESULT.OBJ|P:\PROJECTS\DEVELOPMENT--P L U G I N S\CSM-SERIALIZER\CSM SERIALIZER\CSMCORE\X64\DEBUG\SERIALIZEOBJ.OBJ|P:\PROJECTS\DEVELOPMENT--P L U G I N S\CSM-SERIALIZER\CSM SERIALIZER\CSMWRAPPER\X64\DEBUG\.NETFRAMEWORK,VERSION=V4.6.ASSEMBLYATTRIBUTES.OBJ|P:\PROJECTS\DEVELOPMENT--P L U G I N S\CSM-SERIALIZER\CSM SERIALIZER\CSMWRAPPER\X64\DEBUG\ASSEMBLYINFO.OBJ|P:\PROJECTS\DEVELOPMENT--P L U G I N S\CSM-SERIALIZER\CSM SERIALIZER\CSMWRAPPER\X64\DEBUG\CSHARPMANAGER.OBJ|P:\PROJECTS\DEVELOPMENT--P L U G I N S\CSM-SERIALIZER\CSM SERIALIZER\CSMWRAPPER\X64\DEBUG\CSMDESERIALIZER.OBJ|P:\PROJECTS\DEVELOPMENT--P L U G I N S\CSM-SERIALIZER\CSM SERIALIZER\CSMWRAPPER\X64\DEBUG\CSMMANAGER.OBJ|P:\PROJECTS\DEVELOPMENT--P L U G I N S\CSM-SERIALIZER\CSM SERIALIZER\CSMWRAPPER\X64\DEBUG\FILECSM.OBJ|P:\PROJECTS\DEVELOPMENT--P L U G I N S\CSM-SERIALIZER\CSM SERIALIZER\CSMWRAPPER\X64\DEBUG\FILEPROTOTYPE.OBJ|P:\PROJECTS\DEVELOPMENT--P L U G I N S\CSM-SERIALIZER\CSM SERIALIZER\CSMWRAPPER\X64\DEBUG\MARSHALING.OBJ
P:\PROJECTS\DEVELOPMENT--P L U G I N S\CSM-SERIALIZER\CSM SERIALIZER\CSMWRAPPER\X64\DEBUG\ASSEMBLYINFO.OBJ
P:\PROJECTS\DEVELOPMENT--P L U G I N S\CSM-SERIALIZER\CSM SERIALIZER\CSMWRAPPER\X64\DEBUG\CSHARPMANAGER.OBJ
P:\PROJECTS\DEVELOPMENT--P L U G I N S\CSM-SERIALIZER\CSM SERIALIZER\CSMWRAPPER\X64\DEBUG\CSMDESERIALIZER.OBJ
P:\PROJECTS\DEVELOPMENT--P L U G I N S\CSM-SERIALIZER\CSM SERIALIZER\CSMWRAPPER\X64\DEBUG\CSMMANAGER.OBJ
P:\PROJECTS\DEVELOPMENT--P L U G I N S\CSM-SERIALIZER\CSM SERIALIZER\CSMWRAPPER\X64\DEBUG\FILECSM.OBJ
P:\PROJECTS\DEVELOPMENT--P L U G I N S\CSM-SERIALIZER\CSM SERIALIZER\CSMWRAPPER\X64\DEBUG\FILEPROTOTYPE.OBJ
P:\PROJECTS\DEVELOPMENT--P L U G I N S\CSM-SERIALIZER\CSM SERIALIZER\CSMWRAPPER\X64\DEBUG\MARSHALING.OBJ
P:\PROJECTS\DEVELOPMENT--P L U G I N S\CSM-SERIALIZER\CSM SERIALIZER\CSMWRAPPER\X64\DEBUG\.NETFRAMEWORK,VERSION=V4.6.ASSEMBLYATTRIBUTES.OBJ
P:\PROJECTS\DEVELOPMENT--P L U G I N S\CSM-SERIALIZER\CSM SERIALIZER\CSMCORE\X64\DEBUG\SERIALIZEDRESULT.OBJ
P:\PROJECTS\DEVELOPMENT--P L U G I N S\CSM-SERIALIZER\CSM SERIALIZER\CSMCORE\X64\DEBUG\SERIALIZEOBJ.OBJ
P:\PROJECTS\DEVELOPMENT--P L U G I N S\CSM-SERIALIZER\CSM SERIALIZER\CSMCORE\X64\DEBUG\CSMFILEPROTOTYPE.OBJ
P:\PROJECTS\DEVELOPMENT--P L U G I N S\CSM-SERIALIZER\CSM SERIALIZER\CSMCORE\X64\DEBUG\CSMDESERIALIZERCORE.OBJ
P:\PROJECTS\DEVELOPMENT--P L U G I N S\CSM-SERIALIZER\CSM SERIALIZER\CSMCORE\X64\DEBUG\CSMFILECORE.OBJ
P:\PROJECTS\DEVELOPMENT--P L U G I N S\CSM-SERIALIZER\CSM SERIALIZER\CSMCORE\X64\DEBUG\CSMPROTOTYPEINFO.OBJ
P:\PROJECTS\DEVELOPMENT--P L U G I N S\CSM-SERIALIZER\CSM SERIALIZER\CSMCORE\X64\DEBUG\CSMSERIALIZEDBLOCK.OBJ
P:\PROJECTS\DEVELOPMENT--P L U G I N S\CSM-SERIALIZER\CSM SERIALIZER\CSMCORE\X64\DEBUG\FILEUTILITY.OBJ
C:\PROGRAM FILES (X86)\MICROSOFT VISUAL STUDIO\2017\ENTERPRISE\VC\TOOLS\MSVC\14.16.27023\BIN\HOSTX86\X64\1033\LINKUI.DLL
C:\WINDOWS\GLOBALIZATION\SORTING\SORTDEFAULT.NLS
C:\PROGRAM FILES (X86)\MICROSOFT VISUAL STUDIO\2017\ENTERPRISE\VC\TOOLS\MSVC\14.16.27023\LIB\X64\MSVCRTD.LIB
C:\PROGRAM FILES (X86)\MICROSOFT VISUAL STUDIO\2017\ENTERPRISE\VC\TOOLS\MSVC\14.16.27023\LIB\X64\OLDNAMES.LIB
C:\PROGRAM FILES (X86)\MICROSOFT VISUAL STUDIO\2017\ENTERPRISE\VC\TOOLS\MSVC\14.16.27023\LIB\X64\MSVCMRTD.LIB
C:\PROGRAM FILES (X86)\WINDOWS KITS\NETFXSDK\4.6.1\LIB\UM\X64\MSCOREE.LIB
C:\PROGRAM FILES (X86)\MICROSOFT VISUAL STUDIO\2017\ENTERPRISE\VC\TOOLS\MSVC\14.16.27023\LIB\X64\MSVCPRTD.LIB
C:\PROGRAM FILES (X86)\WINDOWS KITS\10\LIB\10.0.17134.0\UM\X64\UUID.LIB
C:\PROGRAM FILES (X86)\MICROSOFT VISUAL STUDIO\2017\ENTERPRISE\VC\TOOLS\MSVC\14.16.27023\LIB\X64\COMSUPP.LIB
C:\PROGRAM FILES (X86)\WINDOWS KITS\10\LIB\10.0.17134.0\UM\X64\OLEAUT32.LIB
C:\PROGRAM FILES (X86)\WINDOWS KITS\10\LIB\10.0.17134.0\UM\X64\KERNEL32.LIB
C:\PROGRAM FILES (X86)\MICROSOFT VISUAL STUDIO\2017\ENTERPRISE\VC\TOOLS\MSVC\14.16.27023\LIB\X64\VCRUNTIMED.LIB
C:\PROGRAM FILES (X86)\WINDOWS KITS\10\LIB\10.0.17134.0\UCRT\X64\UCRTD.LIB
C:\WINDOWS\MICROSOFT.NET\FRAMEWORK\V2.0.50727\MSCORWKS.DLL
C:\WINDOWS\MICROSOFT.NET\FRAMEWORK\V4.0.30319\CLR.DLL
C:\PROGRAM FILES (X86)\MICROSOFT VISUAL STUDIO\2017\ENTERPRISE\VC\TOOLS\MSVC\14.16.27023\BIN\HOSTX86\X64\LINK.EXE.CONFIG
C:\PROGRAM FILES (X86)\WINDOWS KITS\10\BIN\10.0.17134.0\X86\RC.EXE
C:\PROGRAM FILES (X86)\MICROSOFT VISUAL STUDIO\2017\ENTERPRISE\VC\TOOLS\MSVC\14.16.27023\BIN\HOSTX86\X86\CVTRES.EXE
C:\WINDOWS\SYSTEM32\TZRES.DLL
C:\PROGRAM FILES (X86)\MICROSOFT VISUAL STUDIO\2017\ENTERPRISE\VC\TOOLS\MSVC\14.16.27023\BIN\HOSTX86\X64\VCTIP.EXE
C:\PROGRAM FILES (X86)\MICROSOFT VISUAL STUDIO\2017\ENTERPRISE\VC\TOOLS\MSVC\14.16.27023\BIN\HOSTX86\X86\1033\CVTRESUI.DLL
